Page: 15 of 25                                                                     Philadelphia Insurance Companies
9/25/2015 3:01 PM                                                                     Customer Loss Detail Report


Account     46664      ELDER SERVICE PLAN OF THE NORTH

Product     FF         Flexi Plus Five

Policy Number       PHSD676212             10/13/2011   TO   10/13/2012

                                                                                                                                                                                   Subro/Sal
Claim Number           Claimant/Driver Name                      Loss Type                             Status   Loss Date      Open        Closed       Loss/Exps Paid            Recovered Rep
PHFF12050633990        Elizabeth Mendez                          Flexi Five Part 2 Race Discriminati    CL      05/14/2012   05/15/2012   09/24/2012          28,500.00                0.00 Ansley

Total Number of Claims For Policy        PHSD676212          1                                                                                      Total Loss/Exp Paid:   28,500.00

                                                                                                                                                Salv/Subro Recovered:      0.00

                                                                                                                                                        Total Reserves:    0.00

                                                                                                                                                         Total Incurred:   28,500.00
