Page: 2 of 17                                                                 Philadelphia Insurance Companies
9/16/2015 3:50 PM                                                                Customer Loss Detail Report


Account     11959      THE HIBBERT COMPANY

Product     CL         Miscellaneous Professional Liability

Policy Number       PHSD020622           01/01/2002    TO     01/01/2003

                                                                                                                                                               Subro/Sal
Claim Number           Claimant/Driver Name                       Loss Type                Status   Loss Date   Open   Closed       Loss/Exps Paid            Recovered Rep
                       Unknown Claimant                                                                                                         0.00               0.00

Total Number of Claims For Policy     PHSD020622              0                                                                 Total Loss/Exp Paid:   0.00

                                                                                                                           Salv/Subro Recovered:       0.00

                                                                                                                                    Total Reserves:    0.00

                                                                                                                                     Total Incurred:   0.00
