Page: 10 of 10                 Philadelphia Insurance Companies
2/24/2015 4:25 PM                 Customer Loss Detail Report


                                       GRAND TOTALS

Account     7893224
            4
Total Claims For Account   5                                        Total Loss/Exp Paid:   121,651.02

                                                                  Salv/Subro Recovered:    0.00

                                                                        Total Reserves:    263,879.98

                                                                         Total Incurred:   385,531.00
