Page: 3 of 16                                                                Philadelphia Insurance Companies
3/3/2015 1:20 PM                                                                Customer Loss Detail Report


Account     7922655   DIAMOND MOUNTAIN CENTERS, INC. DBA:
            8
Product     PV        Private Company Protection Plus

Policy Number      PHSD521672         06/15/2010   TO   06/15/2011

                                                                                                                                                                             Subro/Sal
Claim Number          Claimant/Driver Name                  Loss Type                            Status   Loss Date      Open        Closed       Loss/Exps Paid            Recovered Rep
PHPV10100503772       ROBERT & DANIEL HANKINS               Private Company Part 1 - All Other    NP      10/08/2010   10/14/2010   04/08/2011                0.00               0.00 Mullen

Total Number of Claims For Policy   PHSD521672          1                                                                                     Total Loss/Exp Paid:   0.00

                                                                                                                                          Salv/Subro Recovered:      0.00

                                                                                                                                                  Total Reserves:    0.00

                                                                                                                                                   Total Incurred:   0.00
