Page: 4 of 57                                                                Philadelphia Insurance Companies
6/15/2015 4:47 PM                                                               Customer Loss Detail Report


Account     5296       BUTTONWOOD FARMS, INC. T/A

Product     DO         Non-profit Director's and Officer's

Policy Number       PHDO100623            10/01/1993    TO   10/01/1994

                                                                                                                                                              Subro/Sal
Claim Number           Claimant/Driver Name                      Loss Type                Status   Loss Date   Open   Closed       Loss/Exps Paid            Recovered Rep
                       Unknown Claimant                                                                                                        0.00               0.00

Total Number of Claims For Policy      PHDO100623            0                                                                 Total Loss/Exp Paid:   0.00

                                                                                                                          Salv/Subro Recovered:       0.00

                                                                                                                                   Total Reserves:    0.00

                                                                                                                                    Total Incurred:   0.00
