Page: 5 of 13                                                                Philadelphia Insurance Companies
4/28/2015 4:48 PM                                                               Customer Loss Detail Report


Account     8110854    Association for American Innovation
            2
Product     NP         Non Profit Package

Policy Number       PHPK865420          05/11/2012    TO     05/11/2013

                                                                                                                                                              Subro/Sal
Claim Number           Claimant/Driver Name                      Loss Type                Status   Loss Date   Open   Closed       Loss/Exps Paid            Recovered Rep
                       Unknown Claimant                                                                                                        0.00               0.00

Total Number of Claims For Policy    PHPK865420              0                                                                 Total Loss/Exp Paid:   0.00

                                                                                                                          Salv/Subro Recovered:       0.00

                                                                                                                                   Total Reserves:    0.00

                                                                                                                                    Total Incurred:   0.00
